^\\APPSDATA1.FVTC.EDU\USERDATA$\300001461\DOCUMENTS\C++\ASSIGNMENT-3-POINTERS\ASSIGNMENT 3 - POINTERS\ASSIGNMENT 3 - POINTERS\MAIN.CPP
\\APPSDATA1.FVTC.EDU\USERDATA$\300001461\DOCUMENTS\C++\ASSIGNMENT-3-POINTERS\ASSIGNMENT 3 - POINTERS\ASSIGNMENT 3 - POINTERS\X64\DEBUG\MAIN.OBJ
\\APPSDATA1.FVTC.EDU\USERDATA$\300001461\DOCUMENTS\C++\ASSIGNMENT-3-POINTERS\ASSIGNMENT 3 - POINTERS\ASSIGNMENT 3 - POINTERS\X64\DEBUG\VC141.PDB
